<svg width="20" height="20" viewBox="0 0 20 20" fill="none" xmlns="http://www.w3.org/2000/svg">
<path d="M13.3333 14.175V8.33333H11.6666V14.175H9.16663L12.5 17.5L15.8333 14.175H13.3333ZM7.49996 2.5L4.16663 5.825H6.66663V11.6667H8.33329V5.825H10.8333L7.49996 2.5Z" fill="#BDBDBD"/>
<path d="M7.49996 2.5L4.16663 5.825H6.66663V11.6667H8.33329V5.825H10.8333L7.49996 2.5Z" fill="#4F4F4F"/>
</svg>
